<svg xmlns="http://www.w3.org/2000/svg" viewBox="0 0 79.639 47.801">
  <path id="handshake-light" d="M1.991,95.738A1.991,1.991,0,1,0,0,93.748,2,2,0,0,0,1.991,95.738ZM78.631,71.875,64.51,71.9l-6.37-6.208a5.92,5.92,0,0,0-4.218-1.754H41.356a5.913,5.913,0,0,0-3.521,1.244A5.99,5.99,0,0,0,34.19,63.9H25.543a5.972,5.972,0,0,0-4.218,1.754L15.1,71.875H1a1,1,0,0,0-1,1v1.991a1,1,0,0,0,1,1H7.963V99.732H1a1,1,0,0,0-1,1v1.991a1,1,0,0,0,1,1H7.963a3.967,3.967,0,0,0,3.969-3.944h4.131l10.14,9.7a9.982,9.982,0,0,0,12.566-.025l.9.771a6.637,6.637,0,0,0,9.319-.958l2.725-3.347a5.975,5.975,0,0,0,7.465-1.493l1.182-1.456a5.966,5.966,0,0,0,1.306-3.2h6.047a3.975,3.975,0,0,0,3.969,3.944h6.967a1,1,0,0,0,1-1v-1.991a1,1,0,0,0-1-1H71.676V75.881l6.967-.025a1,1,0,0,0,1-1V72.87a1.009,1.009,0,0,0-1.008-1ZM57.256,100.441,56.075,101.9a1.988,1.988,0,0,1-2.8.286l-2.215-1.792L45.9,106.737a2.631,2.631,0,0,1-3.658.423l-3.807-3.247L37.138,105.5a5.974,5.974,0,0,1-8.286.983L17.667,95.775H11.944V75.844h4.8l7.378-7.378a2,2,0,0,1,1.406-.585h8.647c.112.274.037.087.137.361l-7.341,6.743a8.526,8.526,0,0,0-.523,12.056c1.779,1.941,7.291,4.89,12.056.523l2.837-2.6L56.97,97.642A2,2,0,0,1,57.256,100.441Zm10.426-4.666H60.566a6.31,6.31,0,0,0-1.095-1.219L44.3,82.239l3.533-3.247a1.99,1.99,0,1,0-2.687-2.936l-9.344,8.56a4.7,4.7,0,0,1-6.432-.274,4.559,4.559,0,0,1,.274-6.432l10.339-9.481a2,2,0,0,1,1.344-.523H53.9a1.987,1.987,0,0,1,1.418.6l7.552,7.353h4.815Zm9.953-4.006a1.991,1.991,0,1,0,1.991,1.991A2,2,0,0,0,77.636,91.769Z" transform="translate(0 -63.9)"/>
</svg>
