<svg xmlns="http://www.w3.org/2000/svg" viewBox="0 0 20.365 17.985">
  <defs>
    <style>
      .cls-1 {
        fill: #474f59;
      }

      .cls-2 {
        fill: #3aadf9;
      }
    </style>
  </defs>
  <g id="Group_6" data-name="Group 6" transform="translate(0 0)">
    <path id="Path_11" data-name="Path 11" class="cls-1" d="M17.649.5h0A1.453,1.453,0,0,0,16.64,0H1.345A1.284,1.284,0,0,0,.5.336h0A1.453,1.453,0,0,0,0,1.345v9.077a1.284,1.284,0,0,0,.336.84v.168L.5,11.6a1.515,1.515,0,0,0,.84.168h15.3a1.284,1.284,0,0,0,.84-.336h0a1.2,1.2,0,0,0,.5-1.009V1.345A1.284,1.284,0,0,0,17.649.5ZM1.009,1.681l4.706,4.2-4.706,4.37ZM11.094,5.547h0L8.909,7.4,6.892,5.547H6.723L1.681,1.009H15.968ZM6.555,6.723,8.74,8.572c.168.168.168.168.336.168s.168,0,.336-.168L11.43,6.723l4.706,4.2H1.849Zm5.715-.84,4.706-4.2v8.572Z"/>
    <path id="Path_12" data-name="Path 12" class="cls-2" d="M18.14,1.5H16.964V2.509H18.14a.362.362,0,0,1,.336.336v9.077a.362.362,0,0,1-.336.336H8.055c-.168,0-.336.168-.5.168L4.357,15.451V12.93a.446.446,0,0,0-.5-.5H2.845a.362.362,0,0,1-.336-.336V10.745H1.5v1.177a1.446,1.446,0,0,0,1.345,1.345h.5V16.46c0,.168.168.336.336.5h.168c.168,0,.168,0,.336-.168l3.866-3.53h9.917a1.446,1.446,0,0,0,1.345-1.345V2.845A1.191,1.191,0,0,0,18.14,1.5Z" transform="translate(1.021 1.021)"/>
  </g>
</svg>
